<svg width="41" height="24" viewBox="0 0 41 24" fill="none" xmlns="http://www.w3.org/2000/svg">
<path d="M36.8223 10.5L34 9C34 9 28.9457 16.3169 23 17C17.0543 17.6823 6 13 6 13L0.822266 14.6644L6.29822 23.7462C6.29822 23.7462 20.6816 25.0066 26.2751 21.9101C31.8679 18.812 36.8223 10.5 36.8223 10.5Z" fill="#FCFCFC"/>
<path d="M16.7279 18.4856C18.1487 18.6927 19.5672 18.7826 21.0029 18.738C21.5046 18.7232 21.507 17.9416 21.0029 17.9565C19.6399 17.9987 18.2855 17.9291 16.9358 17.7314C16.4442 17.6595 16.2316 18.4129 16.7279 18.4856Z" fill="#060606"/>
<path d="M34.119 9.83365C34.119 9.83365 30.9927 6.53318 29.4234 5.9697C27.8548 5.40543 30.537 2.50749 33.2255 5.70398C35.914 8.90047 34.119 9.83365 34.119 9.83365Z" fill="#E1A277"/>
<path d="M34.576 3.08122L34.9886 0.969505C35.1153 0.321611 35.7483 -0.104326 36.3962 0.0222828C37.0433 0.148892 37.47 0.781938 37.3434 1.42983L36.9308 3.54076C36.8042 4.18866 36.1711 4.61381 35.5232 4.4872C34.8761 4.36138 34.4494 3.72833 34.576 3.08122Z" fill="#E1A277"/>
<path d="M32.9171 3.30779L33.2516 1.18279C33.354 0.531767 33.9714 0.0823912 34.6232 0.184773C35.275 0.287154 35.7236 0.904562 35.6212 1.55636L35.2867 3.68137C35.1844 4.33239 34.5669 4.78177 33.9151 4.67861C33.2633 4.57701 32.814 3.95959 32.9171 3.30779Z" fill="#E1A277"/>
<path d="M36.4042 4.4785L36.9341 1.76423C37.0552 1.14603 37.6601 0.738846 38.2783 0.859984C38.8957 0.981123 39.3029 1.58526 39.1818 2.20345L38.6519 4.91695C38.5308 5.53514 37.9258 5.94233 37.3084 5.82119C36.6902 5.70083 36.283 5.0967 36.4042 4.4785Z" fill="#E1A277"/>
<path d="M38.3256 4.65369L38.6953 2.76472C38.8078 2.1856 39.3752 1.8042 39.9544 1.91675C40.5343 2.03085 40.9156 2.59668 40.8023 3.17658L40.4327 5.06634C40.3193 5.64546 39.7527 6.02685 39.1736 5.91353C38.5937 5.80021 38.2123 5.23281 38.3256 4.65369Z" fill="#E1A277"/>
<path d="M36.423 11.1395C36.423 11.1395 39.3549 9.55002 40.4327 5.06634C41.5112 0.581103 33.0311 2.58247 33.0421 2.51213C33.053 2.44258 31.9487 6.51908 32.1331 6.6707C32.3176 6.8231 33.9947 9.76324 33.9947 9.76324L36.423 11.1395Z" fill="#E1A277"/>
</svg>
